waveforms/top_waves.vcd
$date
  Mon Jun 16 12:04:38 2025
$end
$version
  GHDL v0
$end
$timescale
  1 fs
$end
$scope module standard $end
$upscope $end
$scope module std_logic_1164 $end
$upscope $end
$scope module numeric_std $end
$upscope $end
$scope module top_tb $end
$var reg 1 ! clk_tb $end
$var reg 1 " start_tb $end
$var reg 1 # busy_tb $end
$var reg 128 $ plaintext_tb[127:0] $end
$var reg 1 % valid_o_tb $end
$var reg 128 & ciphertext_tb[127:0] $end
$var reg 128 ' key_tb[127:0] $end
$var reg 128 ( expected_ciphertext[127:0] $end
$scope module dut $end
$var reg 1 ) clk $end
$var reg 1 * start $end
$var reg 1 + busy $end
$var reg 128 , plaintext[127:0] $end
$var reg 1 - valid_o $end
$var reg 128 . ciphertext_o[127:0] $end
$var reg 128 / key[127:0] $end
$var reg 128 0 ciphertext[127:0] $end
$comment keysarray is not handled $end
$var reg 4 1 round[3:0] $end
$var reg 4 2 roundreg[3:0] $end
$comment current_state is not handled $end
$comment next_state is not handled $end
$var reg 128 3 i_sbox[127:0] $end
$var reg 128 4 o_sbox[127:0] $end
$var reg 128 5 i_keyaddkey[127:0] $end
$var reg 128 6 i_dataaddkey[127:0] $end
$var reg 128 7 o_dataaddkey[127:0] $end
$var reg 128 8 i_datashiftrows[127:0] $end
$var reg 128 9 o_datashiftrows[127:0] $end
$var reg 128 : i_datamixcolumn[127:0] $end
$var reg 128 ; o_datamixcolumn[127:0] $end
$var reg 1 < finished $end
$scope module subbyteinst0 $end
$var reg 8 = i_data[7:0] $end
$var reg 8 > o_data[7:0] $end
$upscope $end
$scope module subbyteinst1 $end
$var reg 8 ? i_data[7:0] $end
$var reg 8 @ o_data[7:0] $end
$upscope $end
$scope module subbyteinst2 $end
$var reg 8 A i_data[7:0] $end
$var reg 8 B o_data[7:0] $end
$upscope $end
$scope module subbyteinst3 $end
$var reg 8 C i_data[7:0] $end
$var reg 8 D o_data[7:0] $end
$upscope $end
$scope module subbyteinst4 $end
$var reg 8 E i_data[7:0] $end
$var reg 8 F o_data[7:0] $end
$upscope $end
$scope module subbyteinst5 $end
$var reg 8 G i_data[7:0] $end
$var reg 8 H o_data[7:0] $end
$upscope $end
$scope module subbyteinst6 $end
$var reg 8 I i_data[7:0] $end
$var reg 8 J o_data[7:0] $end
$upscope $end
$scope module subbyteinst7 $end
$var reg 8 K i_data[7:0] $end
$var reg 8 L o_data[7:0] $end
$upscope $end
$scope module subbyteinst8 $end
$var reg 8 M i_data[7:0] $end
$var reg 8 N o_data[7:0] $end
$upscope $end
$scope module subbyteinst9 $end
$var reg 8 O i_data[7:0] $end
$var reg 8 P o_data[7:0] $end
$upscope $end
$scope module subbyteinst10 $end
$var reg 8 Q i_data[7:0] $end
$var reg 8 R o_data[7:0] $end
$upscope $end
$scope module subbyteinst11 $end
$var reg 8 S i_data[7:0] $end
$var reg 8 T o_data[7:0] $end
$upscope $end
$scope module subbyteinst12 $end
$var reg 8 U i_data[7:0] $end
$var reg 8 V o_data[7:0] $end
$upscope $end
$scope module subbyteinst13 $end
$var reg 8 W i_data[7:0] $end
$var reg 8 X o_data[7:0] $end
$upscope $end
$scope module subbyteinst14 $end
$var reg 8 Y i_data[7:0] $end
$var reg 8 Z o_data[7:0] $end
$upscope $end
$scope module subbyteinst15 $end
$var reg 8 [ i_data[7:0] $end
$var reg 8 \ o_data[7:0] $end
$upscope $end
$scope module shiftrowinst $end
$var reg 128 ] i_data[127:0] $end
$var reg 128 ^ o_data[127:0] $end
$var reg 8 _ b0[7:0] $end
$var reg 8 ` b1[7:0] $end
$var reg 8 a b2[7:0] $end
$var reg 8 b b3[7:0] $end
$var reg 8 c b4[7:0] $end
$var reg 8 d b5[7:0] $end
$var reg 8 e b6[7:0] $end
$var reg 8 f b7[7:0] $end
$var reg 8 g b8[7:0] $end
$var reg 8 h b9[7:0] $end
$var reg 8 i b10[7:0] $end
$var reg 8 j b11[7:0] $end
$var reg 8 k b12[7:0] $end
$var reg 8 l b13[7:0] $end
$var reg 8 m b14[7:0] $end
$var reg 8 n b15[7:0] $end
$var reg 8 o c0[7:0] $end
$var reg 8 p c1[7:0] $end
$var reg 8 q c2[7:0] $end
$var reg 8 r c3[7:0] $end
$var reg 8 s c4[7:0] $end
$var reg 8 t c5[7:0] $end
$var reg 8 u c6[7:0] $end
$var reg 8 v c7[7:0] $end
$var reg 8 w c8[7:0] $end
$var reg 8 x c9[7:0] $end
$var reg 8 y c10[7:0] $end
$var reg 8 z c11[7:0] $end
$var reg 8 { c12[7:0] $end
$var reg 8 | c13[7:0] $end
$var reg 8 } c14[7:0] $end
$var reg 8 !" c15[7:0] $end
$upscope $end
$scope module mixcolumninst $end
$var reg 128 "" i_block[127:0] $end
$var reg 128 #" o_block[127:0] $end
$var reg 8 $" b0[7:0] $end
$var reg 8 %" b1[7:0] $end
$var reg 8 &" b2[7:0] $end
$var reg 8 '" b3[7:0] $end
$var reg 8 (" b4[7:0] $end
$var reg 8 )" b5[7:0] $end
$var reg 8 *" b6[7:0] $end
$var reg 8 +" b7[7:0] $end
$var reg 8 ," b8[7:0] $end
$var reg 8 -" b9[7:0] $end
$var reg 8 ." b10[7:0] $end
$var reg 8 /" b11[7:0] $end
$var reg 8 0" b12[7:0] $end
$var reg 8 1" b13[7:0] $end
$var reg 8 2" b14[7:0] $end
$var reg 8 3" b15[7:0] $end
$var reg 8 4" c0[7:0] $end
$var reg 8 5" c1[7:0] $end
$var reg 8 6" c2[7:0] $end
$var reg 8 7" c3[7:0] $end
$var reg 8 8" c4[7:0] $end
$var reg 8 9" c5[7:0] $end
$var reg 8 :" c6[7:0] $end
$var reg 8 ;" c7[7:0] $end
$var reg 8 <" c8[7:0] $end
$var reg 8 =" c9[7:0] $end
$var reg 8 >" c10[7:0] $end
$var reg 8 ?" c11[7:0] $end
$var reg 8 @" c12[7:0] $end
$var reg 8 A" c13[7:0] $end
$var reg 8 B" c14[7:0] $end
$var reg 8 C" c15[7:0] $end
$var reg 128 D" mult_by2_results[127:0] $end
$var reg 128 E" mult_by3_results[127:0] $end
$upscope $end
$scope module keyaddinst $end
$var reg 128 F" roundkey[127:0] $end
$var reg 128 G" i_data[127:0] $end
$var reg 128 H" o_data[127:0] $end
$upscope $end
$upscope $end
$upscope $end
$enddefinitions $end
#0
1!
1"
0#
b01101011110000011011111011100010001011100100000010011111100101101110100100111101011111100001000101110011100100110001011100101010 $
0%
b00000000000000000000000000000000000000000000000000000000000000000000000000000000000000000000000000000000000000000000000000000000 &
b00101011011111100001010100010110001010001010111011010010101001101010101111110111000101011000100000001001110011110100111100111100 '
b00000000000000000000000000000000000000000000000000000000000000000000000000000000000000000000000000000000000000000000000000000000 (
1)
1*
0+
b01101011110000011011111011100010001011100100000010011111100101101110100100111101011111100001000101110011100100110001011100101010 ,
0-
b00000000000000000000000000000000000000000000000000000000000000000000000000000000000000000000000000000000000000000000000000000000 .
b00101011011111100001010100010110001010001010111011010010101001101010101111110111000101011000100000001001110011110100111100111100 /
b00000000000000000000000000000000000000000000000000000000000000000000000000000000000000000000000000000000000000000000000000000000 0
b0000 1
b0000 2
bUUUUUUUUUUUUUUUUUUUUUUUUUUUUUUUUUUUUUUUUUUUUUUUUUUUUUUUUUUUUUUUUUUUUUUUUUUUUUUUUUUUUUUUUUUUUUUUUUUUUUUUUUUUUUUUUUUUUUUUUUUUUUUUU 3
bUUUUUUUUUUUUUUUUUUUUUUUUUUUUUUUUUUUUUUUUUUUUUUUUUUUUUUUUUUUUUUUUUUUUUUUUUUUUUUUUUUUUUUUUUUUUUUUUUUUUUUUUUUUUUUUUUUUUUUUUUUUUUUUU 4
bUUUUUUUUUUUUUUUUUUUUUUUUUUUUUUUUUUUUUUUUUUUUUUUUUUUUUUUUUUUUUUUUUUUUUUUUUUUUUUUUUUUUUUUUUUUUUUUUUUUUUUUUUUUUUUUUUUUUUUUUUUUUUUUU 5
bUUUUUUUUUUUUUUUUUUUUUUUUUUUUUUUUUUUUUUUUUUUUUUUUUUUUUUUUUUUUUUUUUUUUUUUUUUUUUUUUUUUUUUUUUUUUUUUUUUUUUUUUUUUUUUUUUUUUUUUUUUUUUUUU 6
bUUUUUUUUUUUUUUUUUUUUUUUUUUUUUUUUUUUUUUUUUUUUUUUUUUUUUUUUUUUUUUUUUUUUUUUUUUUUUUUUUUUUUUUUUUUUUUUUUUUUUUUUUUUUUUUUUUUUUUUUUUUUUUUU 7
bUUUUUUUUUUUUUUUUUUUUUUUUUUUUUUUUUUUUUUUUUUUUUUUUUUUUUUUUUUUUUUUUUUUUUUUUUUUUUUUUUUUUUUUUUUUUUUUUUUUUUUUUUUUUUUUUUUUUUUUUUUUUUUUU 8
bUUUUUUUUUUUUUUUUUUUUUUUUUUUUUUUUUUUUUUUUUUUUUUUUUUUUUUUUUUUUUUUUUUUUUUUUUUUUUUUUUUUUUUUUUUUUUUUUUUUUUUUUUUUUUUUUUUUUUUUUUUUUUUUU 9
bUUUUUUUUUUUUUUUUUUUUUUUUUUUUUUUUUUUUUUUUUUUUUUUUUUUUUUUUUUUUUUUUUUUUUUUUUUUUUUUUUUUUUUUUUUUUUUUUUUUUUUUUUUUUUUUUUUUUUUUUUUUUUUUU :
bUUUUUUUUUUUUUUUUUUUUUUUUUUUUUUUUUUUUUUUUUUUUUUUUUUUUUUUUUUUUUUUUUUUUUUUUUUUUUUUUUUUUUUUUUUUUUUUUUUUUUUUUUUUUUUUUUUUUUUUUUUUUUUUU ;
0<
bUUUUUUUU =
bUUUUUUUU >
bUUUUUUUU ?
bUUUUUUUU @
bUUUUUUUU A
bUUUUUUUU B
bUUUUUUUU C
bUUUUUUUU D
bUUUUUUUU E
bUUUUUUUU F
bUUUUUUUU G
bUUUUUUUU H
bUUUUUUUU I
bUUUUUUUU J
bUUUUUUUU K
bUUUUUUUU L
bUUUUUUUU M
bUUUUUUUU N
bUUUUUUUU O
bUUUUUUUU P
bUUUUUUUU Q
bUUUUUUUU R
bUUUUUUUU S
bUUUUUUUU T
bUUUUUUUU U
bUUUUUUUU V
bUUUUUUUU W
bUUUUUUUU X
bUUUUUUUU Y
bUUUUUUUU Z
bUUUUUUUU [
bUUUUUUUU \
bUUUUUUUUUUUUUUUUUUUUUUUUUUUUUUUUUUUUUUUUUUUUUUUUUUUUUUUUUUUUUUUUUUUUUUUUUUUUUUUUUUUUUUUUUUUUUUUUUUUUUUUUUUUUUUUUUUUUUUUUUUUUUUUU ]
bUUUUUUUUUUUUUUUUUUUUUUUUUUUUUUUUUUUUUUUUUUUUUUUUUUUUUUUUUUUUUUUUUUUUUUUUUUUUUUUUUUUUUUUUUUUUUUUUUUUUUUUUUUUUUUUUUUUUUUUUUUUUUUUU ^
bUUUUUUUU _
bUUUUUUUU `
bUUUUUUUU a
bUUUUUUUU b
bUUUUUUUU c
bUUUUUUUU d
bUUUUUUUU e
bUUUUUUUU f
bUUUUUUUU g
bUUUUUUUU h
bUUUUUUUU i
bUUUUUUUU j
bUUUUUUUU k
bUUUUUUUU l
bUUUUUUUU m
bUUUUUUUU n
bUUUUUUUU o
bUUUUUUUU p
bUUUUUUUU q
bUUUUUUUU r
bUUUUUUUU s
bUUUUUUUU t
bUUUUUUUU u
bUUUUUUUU v
bUUUUUUUU w
bUUUUUUUU x
bUUUUUUUU y
bUUUUUUUU z
bUUUUUUUU {
bUUUUUUUU |
bUUUUUUUU }
bUUUUUUUU !"
bUUUUUUUUUUUUUUUUUUUUUUUUUUUUUUUUUUUUUUUUUUUUUUUUUUUUUUUUUUUUUUUUUUUUUUUUUUUUUUUUUUUUUUUUUUUUUUUUUUUUUUUUUUUUUUUUUUUUUUUUUUUUUUUU ""
bUUUUUUUUUUUUUUUUUUUUUUUUUUUUUUUUUUUUUUUUUUUUUUUUUUUUUUUUUUUUUUUUUUUUUUUUUUUUUUUUUUUUUUUUUUUUUUUUUUUUUUUUUUUUUUUUUUUUUUUUUUUUUUUU #"
bUUUUUUUU $"
bUUUUUUUU %"
bUUUUUUUU &"
bUUUUUUUU '"
bUUUUUUUU ("
bUUUUUUUU )"
bUUUUUUUU *"
bUUUUUUUU +"
bUUUUUUUU ,"
bUUUUUUUU -"
bUUUUUUUU ."
bUUUUUUUU /"
bUUUUUUUU 0"
bUUUUUUUU 1"
bUUUUUUUU 2"
bUUUUUUUU 3"
bUUUUUUUU 4"
bUUUUUUUU 5"
bUUUUUUUU 6"
bUUUUUUUU 7"
bUUUUUUUU 8"
bUUUUUUUU 9"
bUUUUUUUU :"
bUUUUUUUU ;"
bUUUUUUUU <"
bUUUUUUUU ="
bUUUUUUUU >"
bUUUUUUUU ?"
bUUUUUUUU @"
bUUUUUUUU A"
bUUUUUUUU B"
bUUUUUUUU C"
bUUUUUUU0UUUUUUU0UUUUUUU0UUUUUUU0UUUUUUU0UUUUUUU0UUUUUUU0UUUUUUU0UUUUUUU0UUUUUUU0UUUUUUU0UUUUUUU0UUUUUUU0UUUUUUU0UUUUUUU0UUUUUUU0 D"
bUUUUUUUUUUUUUUUUUUUUUUUUUUUUUUUUUUUUUUUUUUUUUUUUUUUUUUUUUUUUUUUUUUUUUUUUUUUUUUUUUUUUUUUUUUUUUUUUUUUUUUUUUUUUUUUUUUUUUUUUUUUUUUUU E"
bUUUUUUUUUUUUUUUUUUUUUUUUUUUUUUUUUUUUUUUUUUUUUUUUUUUUUUUUUUUUUUUUUUUUUUUUUUUUUUUUUUUUUUUUUUUUUUUUUUUUUUUUUUUUUUUUUUUUUUUUUUUUUUUU F"
bUUUUUUUUUUUUUUUUUUUUUUUUUUUUUUUUUUUUUUUUUUUUUUUUUUUUUUUUUUUUUUUUUUUUUUUUUUUUUUUUUUUUUUUUUUUUUUUUUUUUUUUUUUUUUUUUUUUUUUUUUUUUUUUU G"
bUUUUUUUUUUUUUUUUUUUUUUUUUUUUUUUUUUUUUUUUUUUUUUUUUUUUUUUUUUUUUUUUUUUUUUUUUUUUUUUUUUUUUUUUUUUUUUUUUUUUUUUUUUUUUUUUUUUUUUUUUUUUUUUU H"
#5000000
0!
0)
#10000000
1!
1#
1)
1+
b00101011011111100001010100010110001010001010111011010010101001101010101111110111000101011000100000001001110011110100111100111100 5
b01101011110000011011111011100010001011100100000010011111100101101110100100111101011111100001000101110011100100110001011100101010 6
b01000000101111111010101111110100000001101110111001001101001100000100001011001010011010111001100101111010010111000101100000010110 7
b00101011011111100001010100010110001010001010111011010010101001101010101111110111000101011000100000001001110011110100111100111100 F"
b01101011110000011011111011100010001011100100000010011111100101101110100100111101011111100001000101110011100100110001011100101010 G"
b01000000101111111010101111110100000001101110111001001101001100000100001011001010011010111001100101111010010111000101100000010110 H"
#15000000
0!
0)
#20000000
1!
1)
b0001 1
b01000000101111111010101111110100000001101110111001001101001100000100001011001010011010111001100101111010010111000101100000010110 3
b00001001000010000110001010111111011011110010100011100011000001000010110001110100011111111110111011011010010010100110101001000111 4
b00010110 =
b01000111 >
b01011000 ?
b01101010 @
b01011100 A
b01001010 B
b01111010 C
b11011010 D
b10011001 E
b11101110 F
b01101011 G
b01111111 H
b11001010 I
b01110100 J
b01000010 K
b00101100 L
b00110000 M
b00000100 N
b01001101 O
b11100011 P
b11101110 Q
b00101000 R
b00000110 S
b01101111 T
b11110100 U
b10111111 V
b10101011 W
b01100010 X
b10111111 Y
b00001000 Z
b01000000 [
b00001001 \
#25000000
0!
0)
#30000000
1!
1)
b0001 2
b00001001000010000110001010111111011011110010100011100011000001000010110001110100011111111110111011011010010010100110101001000111 8
b00001001001010000111111101000111011011110111010001101010101111110010110001001010011000100000010011011010000010001110001111101110 9
b00001001000010000110001010111111011011110010100011100011000001000010110001110100011111111110111011011010010010100110101001000111 ]
b00001001001010000111111101000111011011110111010001101010101111110010110001001010011000100000010011011010000010001110001111101110 ^
b01000111 _
b01101010 `
b01001010 a
b11011010 b
b11101110 c
b01111111 d
b01110100 e
b00101100 f
b00000100 g
b11100011 h
b00101000 i
b01101111 j
b10111111 k
b01100010 l
b00001000 m
b00001001 n
b11101110 o
b11100011 p
b00001000 q
b11011010 r
b00000100 s
b01100010 t
b01001010 u
b00101100 v
b10111111 w
b01101010 x
b01110100 y
b01101111 z
b01000111 {
b01111111 |
b00101000 }
b00001001 !"
#35000000
0!
0)
#40000000
1!
1)
b00001001001010000111111101000111011011110111010001101010101111110010110001001010011000100000010011011010000010001110001111101110 :
b01010010100111110001011011000010100101111000011000010101110010101110000000011010101011100101010010111010000110100010011001011001 ;
b00001001001010000111111101000111011011110111010001101010101111110010110001001010011000100000010011011010000010001110001111101110 ""
b01010010100111110001011011000010100101111000011000010101110010101110000000011010101011100101010010111010000110100010011001011001 #"
b11101110 $"
b11100011 %"
b00001000 &"
b11011010 '"
b00000100 ("
b01100010 )"
b01001010 *"
b00101100 +"
b10111111 ,"
b01101010 -"
b01110100 ."
b01101111 /"
b01000111 0"
b01111111 1"
b00101000 2"
b00001001 3"
b01011001 4"
b00100110 5"
b00011010 6"
b10111010 7"
b01010100 8"
b10101110 9"
b00011010 :"
b11100000 ;"
b11001010 <"
b00010101 ="
b10000110 >"
b10010111 ?"
b11000010 @"
b00010110 A"
b10011111 B"
b01010010 C"
b00010010010100001111111010001110110111101110100011010100011001010101100010010100110001000000100010101111000100001101110111000111 D"
b00011011011110001000000111001001101100011001110010111110110110100111010011011110101001100000110001110101000110000011111000101001 E"
#45000000
0!
0)
#50000000
1!
1)
b10100000111110101111111000010111100010000101010000101100101100010010001110100011001110010011100100101010011011000111011000000101 5
b01010010100111110001011011000010100101111000011000010101110010101110000000011010101011100101010010111010000110100010011001011001 6
b11110010011001011110100011010101000111111101001000111001011110111100001110111001100101110110110110010000011101100101000001011100 7
b10100000111110101111111000010111100010000101010000101100101100010010001110100011001110010011100100101010011011000111011000000101 F"
b01010010100111110001011011000010100101111000011000010101110010101110000000011010101011100101010010111010000110100010011001011001 G"
b11110010011001011110100011010101000111111101001000111001011110111100001110111001100101110110110110010000011101100101000001011100 H"
#55000000
0!
0)
#60000000
1!
1)
b0010 1
b11110010011001011110100011010101000111111101001000111001011110111100001110111001100101110110110110010000011101100101000001011100 3
b10001001010011011001101100000011110000001011010100010010001000010010111001010110100010000011110001100000001110000101001101001010 4
b01011100 =
b01001010 >
b01010000 ?
b01010011 @
b01110110 A
b00111000 B
b10010000 C
b01100000 D
b01101101 E
b00111100 F
b10010111 G
b10001000 H
b10111001 I
b01010110 J
b11000011 K
b00101110 L
b01111011 M
b00100001 N
b00111001 O
b00010010 P
b11010010 Q
b10110101 R
b00011111 S
b11000000 T
b11010101 U
b00000011 V
b11101000 W
b10011011 X
b01100101 Y
b01001101 Z
b11110010 [
b10001001 \
#65000000
0!
0)
#70000000
1!
1)
b0010 2
b10001001010011011001101100000011110000001011010100010010001000010010111001010110100010000011110001100000001110000101001101001010 8
b10001001101101011000100001001010110000000101011001010011000000110010111000111000100110110010000101100000010011010001001000111100 9
b10001001010011011001101100000011110000001011010100010010001000010010111001010110100010000011110001100000001110000101001101001010 ]
b10001001101101011000100001001010110000000101011001010011000000110010111000111000100110110010000101100000010011010001001000111100 ^
b01001010 _
b01010011 `
b00111000 a
b01100000 b
b00111100 c
b10001000 d
b01010110 e
b00101110 f
b00100001 g
b00010010 h
b10110101 i
b11000000 j
b00000011 k
b10011011 l
b01001101 m
b10001001 n
b00111100 o
b00010010 p
b01001101 q
b01100000 r
b00100001 s
b10011011 t
b00111000 u
b00101110 v
b00000011 w
b01010011 x
b01010110 y
b11000000 z
b01001010 {
b10001000 |
b10110101 }
b10001001 !"
#75000000
0!
0)
#80000000
1!
1)
b10001001101101011000100001001010110000000101011001010011000000110010111000111000100110110010000101100000010011010001001000111100 :
b00001111001100011110100100101001001100011001101000110101010110001010111011001001010110001001001100111001111100000100110110000111 ;
b10001001101101011000100001001010110000000101011001010011000000110010111000111000100110110010000101100000010011010001001000111100 ""
b00001111001100011110100100101001001100011001101000110101010110001010111011001001010110001001001100111001111100000100110110000111 #"
b00111100 $"
b00010010 %"
b01001101 &"
b01100000 '"
b00100001 ("
b10011011 )"
b00111000 *"
b00101110 +"
b00000011 ,"
b01010011 -"
b01010110 ."
b11000000 /"
b01001010 0"
b10001000 1"
b10110101 2"
b10001001 3"
b10000111 4"
b01001101 5"
b11110000 6"
b00111001 7"
b10010011 8"
b01011000 9"
b11001001 :"
b10101110 ;"
b01011000 <"
b00110101 ="
b10011010 >"
b00110001 ?"
b00101001 @"
b11101001 A"
b00110001 B"
b00001111 C"
b00001001011100010000101110010100100110111010110010100110000001100101110001110000001011010100001011000000100110100010010001111000 D"
b10000000110001001000001111011110010110111111101011110101000001010111001001001000101101100110001110100000110101110011011001000100 E"
#85000000
0!
0)
#90000000
1!
1)
b11110010110000101001010111110010011110101001011010111001010000110101100100110101100000000111101001110011010110011111011001111111 5
b00001111001100011110100100101001001100011001101000110101010110001010111011001001010110001001001100111001111100000100110110000111 6
b11111101111100110111110011011011010010110000110010001100000110111111011111111100110110001110100101001010101010011011101111111000 7
b11110010110000101001010111110010011110101001011010111001010000110101100100110101100000000111101001110011010110011111011001111111 F"
b00001111001100011110100100101001001100011001101000110101010110001010111011001001010110001001001100111001111100000100110110000111 G"
b11111101111100110111110011011011010010110000110010001100000110111111011111111100110110001110100101001010101010011011101111111000 H"
#95000000
0!
0)
#100000000
1!
1)
b0011 1
b11111101111100110111110011011011010010110000110010001100000110111111011111111100110110001110100101001010101010011011101111111000 3
b01010100000011010001000010111001101100111111111001100100101011110110100010110000011000010001111011010110110100111110101001000001 4
b11111000 =
b01000001 >
b10111011 ?
b11101010 @
b10101001 A
b11010011 B
b01001010 C
b11010110 D
b11101001 E
b00011110 F
b11011000 G
b01100001 H
b11111100 I
b10110000 J
b11110111 K
b01101000 L
b00011011 M
b10101111 N
b10001100 O
b01100100 P
b00001100 Q
b11111110 R
b01001011 S
b10110011 T
b11011011 U
b10111001 V
b01111100 W
b00010000 X
b11110011 Y
b00001101 Z
b11111101 [
b01010100 \
#105000000
0!
0)
#110000000
1!
1)
b0011 2
b01010100000011010001000010111001101100111111111001100100101011110110100010110000011000010001111011010110110100111110101001000001 8
b01010100111111100110000101000001101100111011000011101010101110010110100011010011000100001010111111010110000011010110010000011110 9
b01010100000011010001000010111001101100111111111001100100101011110110100010110000011000010001111011010110110100111110101001000001 ]
b01010100111111100110000101000001101100111011000011101010101110010110100011010011000100001010111111010110000011010110010000011110 ^
b01000001 _
b11101010 `
b11010011 a
b11010110 b
b00011110 c
b01100001 d
b10110000 e
b01101000 f
b10101111 g
b01100100 h
b11111110 i
b10110011 j
b10111001 k
b00010000 l
b00001101 m
b01010100 n
b00011110 o
b01100100 p
b00001101 q
b11010110 r
b10101111 s
b00010000 t
b11010011 u
b01101000 v
b10111001 w
b11101010 x
b10110000 y
b10110011 z
b01000001 {
b01100001 |
b11111110 }
b01010100 !"
#115000000
0!
0)
#120000000
1!
1)
b01010100111111100110000101000001101100111011000011101010101110010110100011010011000100001010111111010110000011010110010000011110 :
b10010001010100011010101111100001111001010101010000011100111111010000000101001010011100010011111011011010011111100011000100110100 ;
b01010100111111100110000101000001101100111011000011101010101110010110100011010011000100001010111111010110000011010110010000011110 ""
b10010001010100011010101111100001111001010101010000011100111111010000000101001010011100010011111011011010011111100011000100110100 #"
b00011110 $"
b01100100 %"
b00001101 &"
b11010110 '"
b10101111 ("
b00010000 )"
b11010011 *"
b01101000 +"
b10111001 ,"
b11101010 -"
b10110000 ."
b10110011 /"
b01000001 0"
b01100001 1"
b11111110 2"
b01010100 3"
b00110100 4"
b00110001 5"
b01111110 6"
b11011010 7"
b00111110 8"
b01110001 9"
b01001010 :"
b00000001 ;"
b11111101 <"
b00011100 ="
b01010100 >"
b11100101 ?"
b11100001 @"
b10101011 A"
b01010001 B"
b10010001 C"
b10101000111001111100001010000010011111010111101111001111011010011101000010111101001000000100010110110111000110101100100000111100 D"
b11111100000110011010001111000011110011101100101100100101110100001011100001101110001100001110101001100001000101111010110000100010 E"
#125000000
0!
0)
#130000000
1!
1)
b00111101100000000100011101111101010001110001011011111110001111100001111000100011011111100100010001101101011110101000100000111011 5
b10010001010100011010101111100001111001010101010000011100111111010000000101001010011100010011111011011010011111100011000100110100 6
b10101100110100011110110010011100101000100100001011100010110000110001111101101001000011110111101010110111000001001011100100001111 7
b00111101100000000100011101111101010001110001011011111110001111100001111000100011011111100100010001101101011110101000100000111011 F"
b10010001010100011010101111100001111001010101010000011100111111010000000101001010011100010011111011011010011111100011000100110100 G"
b10101100110100011110110010011100101000100100001011100010110000110001111101101001000011110111101010110111000001001011100100001111 H"
#135000000
0!
0)
#140000000
1!
1)
b0100 1
b10101100110100011110110010011100101000100100001011100010110000110001111101101001000011110111101010110111000001001011100100001111 3
b10010001001111101100111011011110001110100010110010011000001011101100000011111001011101101101101010101001111100100101011001110110 4
b00001111 =
b01110110 >
b10111001 ?
b01010110 @
b00000100 A
b11110010 B
b10110111 C
b10101001 D
b01111010 E
b11011010 F
b00001111 G
b01110110 H
b01101001 I
b11111001 J
b00011111 K
b11000000 L
b11000011 M
b00101110 N
b11100010 O
b10011000 P
b01000010 Q
b00101100 R
b10100010 S
b00111010 T
b10011100 U
b11011110 V
b11101100 W
b11001110 X
b11010001 Y
b00111110 Z
b10101100 [
b10010001 \
#145000000
0!
0)
#150000000
1!
1)
b0100 2
b10010001001111101100111011011110001110100010110010011000001011101100000011111001011101101101101010101001111100100101011001110110 8
b10010001001011000111011001110110001110101111100101010110110111101100000011110010110011100010111010101001001111101001100011011010 9
b10010001001111101100111011011110001110100010110010011000001011101100000011111001011101101101101010101001111100100101011001110110 ]
b10010001001011000111011001110110001110101111100101010110110111101100000011110010110011100010111010101001001111101001100011011010 ^
b01110110 _
b01010110 `
b11110010 a
b10101001 b
b11011010 c
b01110110 d
b11111001 e
b11000000 f
b00101110 g
b10011000 h
b00101100 i
b00111010 j
b11011110 k
b11001110 l
b00111110 m
b10010001 n
b11011010 o
b10011000 p
b00111110 q
b10101001 r
b00101110 s
b11001110 t
b11110010 u
b11000000 v
b11011110 w
b01010110 x
b11111001 y
b00111010 z
b01110110 {
b01110110 |
b00101100 }
b10010001 !"
#155000000
0!
0)
#160000000
1!
1)
b10010001001011000111011001110110001110101111100101010110110111101100000011110010110011100010111010101001001111101001100011011010 :
b01001101001001011100101100011110111011001111011100010110010001100111011001011000110001110011101101001001101111001100100111101001 ;
b10010001001011000111011001110110001110101111100101010110110111101100000011110010110011100010111010101001001111101001100011011010 ""
b01001101001001011100101100011110111011001111011100010110010001100111011001011000110001110011101101001001101111001100100111101001 #"
b11011010 $"
b10011000 %"
b00111110 &"
b10101001 '"
b00101110 ("
b11001110 )"
b11110010 *"
b11000000 +"
b11011110 ,"
b01010110 -"
b11111001 ."
b00111010 /"
b01110110 0"
b01110110 1"
b00101100 2"
b10010001 3"
b11101001 4"
b11001001 5"
b10111100 6"
b01001001 7"
b00111011 8"
b11000111 9"
b01011000 :"
b01110110 ;"
b01000110 <"
b00010110 ="
b11110111 >"
b11101100 ?"
b00011110 @"
b11001011 A"
b00100101 B"
b01001101 C"
b00111001010110001110110011101100011101001110100110101100101001111001101111111111100001110101110001001001011111000010101110101111 D"
b10101000011101001001101010011010010011100001000011111010011110010101101100001101010010010111001011100000010000101011001101110101 E"
#165000000
0!
0)
#170000000
1!
1)
b11101111010001001010010101000001101010000101001001011011011111111011011001110001001001010011101111011011000010111010110100000000 5
b01001101001001011100101100011110111011001111011100010110010001100111011001011000110001110011101101001001101111001100100111101001 6
b10100010011000010110111001011111010001001010010101001101001110011100000000101001111000100000000010010010101101110110010011101001 7
b11101111010001001010010101000001101010000101001001011011011111111011011001110001001001010011101111011011000010111010110100000000 F"
b01001101001001011100101100011110111011001111011100010110010001100111011001011000110001110011101101001001101111001100100111101001 G"
b10100010011000010110111001011111010001001010010101001101001110011100000000101001111000100000000010010010101101110110010011101001 H"
#175000000
0!
0)
#180000000
1!
1)
b0101 1
b10100010011000010110111001011111010001001010010101001101001110011100000000101001111000100000000010010010101101110110010011101001 3
b00111010111011111001111111001111000110110000011011100011000100101011101010100101100110000110001101001111101010010100001100011110 4
b11101001 =
b00011110 >
b01100100 ?
b01000011 @
b10110111 A
b10101001 B
b10010010 C
b01001111 D
b00000000 E
b01100011 F
b11100010 G
b10011000 H
b00101001 I
b10100101 J
b11000000 K
b10111010 L
b00111001 M
b00010010 N
b01001101 O
b11100011 P
b10100101 Q
b00000110 R
b01000100 S
b00011011 T
b01011111 U
b11001111 V
b01101110 W
b10011111 X
b01100001 Y
b11101111 Z
b10100010 [
b00111010 \
#185000000
0!
0)
#190000000
1!
1)
b0101 2
b00111010111011111001111111001111000110110000011011100011000100101011101010100101100110000110001101001111101010010100001100011110 8
b00111010000001101001100000011110000110111010010101000011110011111011101010101001100111110001001001001111111011111110001101100011 9
b00111010111011111001111111001111000110110000011011100011000100101011101010100101100110000110001101001111101010010100001100011110 ]
b00111010000001101001100000011110000110111010010101000011110011111011101010101001100111110001001001001111111011111110001101100011 ^
b00011110 _
b01000011 `
b10101001 a
b01001111 b
b01100011 c
b10011000 d
b10100101 e
b10111010 f
b00010010 g
b11100011 h
b00000110 i
b00011011 j
b11001111 k
b10011111 l
b11101111 m
b00111010 n
b01100011 o
b11100011 p
b11101111 q
b01001111 r
b00010010 s
b10011111 t
b10101001 u
b10111010 v
b11001111 w
b01000011 x
b10100101 y
b00011011 z
b00011110 {
b10011000 |
b00000110 }
b00111010 !"
#195000000
0!
0)
